<?xml version="1.0" encoding="utf-8"?>
<!-- Generator: Adobe Illustrator 19.0.0, SVG Export Plug-In . SVG Version: 6.00 Build 0)  -->
<svg version="1.1" id="Capa_1" xmlns="http://www.w3.org/2000/svg" xmlns:xlink="http://www.w3.org/1999/xlink" x="0px" y="0px"
	 viewBox="0 0 662 130.1" style="enable-background:new 0 0 662 130.1;" xml:space="preserve">
<style type="text/css">
	.st0{fill:#757575;}
	.st1{fill:#1976D2;}
</style>
<g id="XMLID_23_">
	<path id="XMLID_39_" class="st0" d="M133.8,15.7l-22,106.1H94.9H83.3L70.4,64.2L58,121.8H43.6H29.5L7.4,15.7h27l11.2,64.9
		l13.3-64.9h12.8H82l13.6,65.1l11.2-65.1H133.8z"/>
	<path id="XMLID_37_" class="st0" d="M164.2,37.7v19.2h39.4V78h-39.4v21.9h46.7v21.9h-56.7H137V15.7h27.2h47v22H164.2z"/>
	<path id="XMLID_35_" class="st1" d="M295.1,105.2c-3.7,5.8-8.9,10.2-15.5,13.3c-6.6,3.1-14.2,4.7-22.9,4.7
		c-9.5,0-17.7-2.1-24.5-6.3c-6.8-4.2-12-10.2-15.6-18c-3.6-7.8-5.4-17.2-5.4-27.9v-4.4c0-10.7,1.9-20,5.6-27.9
		c3.7-7.9,9-14,15.7-18.2s14.6-6.3,23.6-6.3c9.1,0,17,1.7,23.5,5c6.6,3.3,11.6,7.9,15.3,13.7c3.6,5.9,5.7,12.6,6.4,20.2h-27.1
		c0-5.7-1.5-9.9-4.2-12.6c-2.8-2.6-7.4-4-13.8-4c-4,0-7.3,0.9-9.8,2.8s-4.3,5-5.6,9.3c-1.2,4.3-1.9,10.3-1.9,17.7V71
		c0,7.8,0.6,13.8,1.7,18.1c1.1,4.3,3,7.3,5.5,9.1c2.5,1.8,6,2.7,10.6,2.7c5.6,0,9.9-1.2,12.8-3.7c3-2.5,4.5-6.4,4.5-11.9h27
		C300.8,92.8,298.8,99.4,295.1,105.2z"/>
	<path id="XMLID_33_" class="st1" d="M393.7,15.7v106.1h-27.1v-43h-35.4v43h-27.2V15.7h27.2v41.2h35.4V15.7H393.7z"/>
	<path id="XMLID_31_" class="st1" d="M425.1,38v19.2h39.4v21.1h-39.4v21.9h46.7v21.9h-56.7h-17.2V16h27.2h47v22H425.1z"/>
	<path id="XMLID_29_" class="st1" d="M554.2,105.5c-3.7,5.8-8.9,10.2-15.5,13.3c-6.6,3.1-14.2,4.7-22.9,4.7
		c-9.5,0-17.7-2.1-24.5-6.3s-12-10.2-15.6-18c-3.6-7.8-5.4-17.2-5.4-27.9v-4.4c0-10.7,1.9-20,5.6-27.9c3.7-7.9,9-14,15.7-18.2
		c6.8-4.2,14.6-6.3,23.6-6.3c9.1,0,17,1.7,23.5,5c6.6,3.3,11.6,7.9,15.3,13.7c3.6,5.9,5.7,12.6,6.4,20.2h-27.1
		c0-5.7-1.5-9.9-4.2-12.6c-2.8-2.6-7.4-4-13.8-4c-4,0-7.3,0.9-9.8,2.8s-4.3,5-5.6,9.3c-1.2,4.3-1.9,10.3-1.9,17.7v4.6
		c0,7.8,0.6,13.8,1.7,18.1c1.1,4.3,3,7.3,5.5,9.1c2.5,1.8,6,2.7,10.6,2.7c5.6,0,9.9-1.2,12.8-3.7c3-2.5,4.5-6.4,4.5-11.9h27
		C559.9,93.1,557.9,99.8,554.2,105.5z"/>
	<path id="XMLID_28_" class="st1" d="M558.5,8.3"/>
	<polygon id="XMLID_27_" class="st0" points="657.5,18.4 564.8,69 564.8,0 576.3,48.7 	"/>
	<g id="XMLID_24_">
		<polygon id="XMLID_26_" class="st1" points="640.5,36.3 564,77 564,122.1 591,122.1 591,95.9 601.2,84.8 621.9,122.1 654.1,122.1 
			619.6,63.1 		"/>
	</g>
</g>
</svg>
