<?xml version="1.0" encoding="utf-8"?>
<!-- Generator: Adobe Illustrator 19.0.0, SVG Export Plug-In . SVG Version: 6.00 Build 0)  -->
<svg version="1.1" id="Capa_1" xmlns="http://www.w3.org/2000/svg" xmlns:xlink="http://www.w3.org/1999/xlink" x="0px" y="0px"
	 viewBox="0 0 361.2 361.9" style="enable-background:new 0 0 361.2 361.9;" xml:space="preserve">
<style type="text/css">
	.st0{clip-path:url(#XMLID_2_);}
	.st1{clip-path:url(#XMLID_3_);}
</style>
<g id="XMLID_133_">
	<g id="XMLID_134_">
		<defs>
			<path id="XMLID_140_" d="M318,43.7C291.2,16.7,254.1,0,213.1,0l0,0C131.4,0,65,66.4,65,148.1c0,35.8,12.7,68.6,33.9,94.2L0,341.3
				l19.9,19.9l98.9-98.9c25.6,21.2,58.5,33.9,94.2,33.9c81.7,0,148.1-66.4,148.1-148.1C361.2,107.4,344.7,70.5,318,43.7 M213.1,268
				C147,268,93.2,214.2,93.2,148.1S147,28.2,213.1,28.2S333,82,333,148.1S279.2,268,213.1,268L213.1,268z M270.5,91.5l21,18.9
				l-96.4,107.3l-64.1-61l19.5-20.4l43.1,41L270.5,91.5z M270.5,91.5"/>
		</defs>
		<defs>
			<rect id="XMLID_136_" x="0.7" y="0.7" width="360.5" height="361.2"/>
		</defs>
		<use xlink:href="#XMLID_140_"  style="overflow:visible;fill:#FFFFFF;"/>
		<clipPath id="XMLID_2_">
			<use xlink:href="#XMLID_140_"  style="overflow:visible;"/>
		</clipPath>
		<clipPath id="XMLID_3_" class="st0">
			<use xlink:href="#XMLID_136_"  style="overflow:visible;"/>
		</clipPath>
		<g id="XMLID_137_" class="st1">
			<defs>
				<rect id="XMLID_138_" x="0.6" y="0.3" width="360.6" height="360.6"/>
			</defs>
			<clipPath id="XMLID_4_">
				<use xlink:href="#XMLID_138_"  style="overflow:visible;"/>
			</clipPath>
		</g>
	</g>
</g>
</svg>
